Data Visualisation in R
…
df_1_summary_year<-df_1 %>% 
  group_by(Treatment,Year) %>% 
  summarise(MeanResponse=mean(Response_updated),
            SDResponse=sd(Response_updated))

`summarise()` has grouped output by 'Treatment'. You can override using the
`.groups` argument.

df_1_summary_year

# A tibble: 222 × 4
# Groups:   Treatment [3]
   Treatment  Year MeanResponse SDResponse
   <fct>     <dbl>        <dbl>      <dbl>
 1 Control    1950        10.9        29.7
 2 Control    1951         3.38       44.1
 3 Control    1952        25.2        41.2
 4 Control    1953        17.1        39.1
 5 Control    1954        41.6        42.8
 6 Control    1955        28.6        38.5
 7 Control    1956         1.20       42.2
 8 Control    1957        28.9        28.8
 9 Control    1958        27.2        46.5
10 Control    1959        48.6        55.6
# ℹ 212 more rows
…
