Introduction to R
…
df_1_summary_year<-df_1 %>% 
  group_by(Treatment,Year) %>% 
  summarise(MeanResponse=mean(Response_updated),
            SDResponse=sd(Response_updated))

`summarise()` has grouped output by 'Treatment'. You can override using the
`.groups` argument.

df_1_summary_year

# A tibble: 222 × 4
# Groups:   Treatment [3]
   Treatment  Year MeanResponse SDResponse
   <fct>     <dbl>        <dbl>      <dbl>
 1 Control    1950         32.3       36.5
 2 Control    1951         10.9       30.8
 3 Control    1952         36.8       26.8
 4 Control    1953         11.0       29.7
 5 Control    1954        -11.1       39.2
 6 Control    1955         30.0       38.5
 7 Control    1956         11.0       27.7
 8 Control    1957         58.4       41.2
 9 Control    1958         48.1       45.8
10 Control    1959         26.5       58.6
# ℹ 212 more rows
…
