Modelling in R
…
Through going into the object and ordering one of the columns we find that the NA’s (which order to last always) are the same rows So we only have to remove two rows to remove the NAs in the biometrics columns, there are more NA’s in the sex column if we want to remove NA’s there are many ways, to be selective we can filter our dataset

To subset data we can use the filter() function from the dplyr package, we create a logic clause that then filters the dataset by that clause/statement,

for example if we want to select all rows of the data set where the data is from a female penguin we can do this by

female_penguins<- penguins %>% 
  filter(sex=="female")

female_penguins

# A tibble: 165 × 8
   species island    bill_length_mm bill_depth_mm flipper_length_mm body_mass_g
   <fct>   <fct>              <dbl>         <dbl>             <int>       <int>
 1 Adelie  Torgersen           39.5          17.4               186        3800
 2 Adelie  Torgersen           40.3          18                 195        3250
 3 Adelie  Torgersen           36.7          19.3               193        3450
 4 Adelie  Torgersen           38.9          17.8               181        3625
 5 Adelie  Torgersen           41.1          17.6               182        3200
 6 Adelie  Torgersen           36.6          17.8               185        3700
 7 Adelie  Torgersen           38.7          19                 195        3450
 8 Adelie  Torgersen           34.4          18.4               184        3325
 9 Adelie  Biscoe              37.8          18.3               174        3400
10 Adelie  Biscoe              35.9          19.2               189        3800
# ℹ 155 more rows
# ℹ 2 more variables: sex <fct>, year <int>

or we might want all the penguins above 5 kg

chonky_penguins<- penguins %>% 
  filter(body_mass_g>= 5000)

chonky_penguins

# A tibble: 67 × 8
   species island bill_length_mm bill_depth_mm flipper_length_mm body_mass_g
   <fct>   <fct>           <dbl>         <dbl>             <int>       <int>
 1 Gentoo  Biscoe           50            16.3               230        5700
 2 Gentoo  Biscoe           50            15.2               218        5700
 3 Gentoo  Biscoe           47.6          14.5               215        5400
 4 Gentoo  Biscoe           46.7          15.3               219        5200
 5 Gentoo  Biscoe           46.8          15.4               215        5150
 6 Gentoo  Biscoe           49            16.1               216        5550
 7 Gentoo  Biscoe           48.4          14.6               213        5850
 8 Gentoo  Biscoe           49.3          15.7               217        5850
 9 Gentoo  Biscoe           49.2          15.2               221        6300
10 Gentoo  Biscoe           48.7          15.1               222        5350
# ℹ 57 more rows
# ℹ 2 more variables: sex <fct>, year <int>
…
sometimes we might want to filter with multiple answers of a categorical variable,

for example if we wanted all penguins from Biscoe and Torgersen island

to do this we can make a vector of the names we want, then filter by that vector

Islands_we_Want<-c("Biscoe","Torgersen")

Biscoe_Torgersen_penguins<- penguins %>% 
  filter(island%in%Islands_we_Want)

Biscoe_Torgersen_penguins

# A tibble: 220 × 8
   species island    bill_length_mm bill_depth_mm flipper_length_mm body_mass_g
   <fct>   <fct>              <dbl>         <dbl>             <int>       <int>
 1 Adelie  Torgersen           39.1          18.7               181        3750
 2 Adelie  Torgersen           39.5          17.4               186        3800
 3 Adelie  Torgersen           40.3          18                 195        3250
 4 Adelie  Torgersen           NA            NA                  NA          NA
 5 Adelie  Torgersen           36.7          19.3               193        3450
 6 Adelie  Torgersen           39.3          20.6               190        3650
 7 Adelie  Torgersen           38.9          17.8               181        3625
 8 Adelie  Torgersen           39.2          19.6               195        4675
 9 Adelie  Torgersen           34.1          18.1               193        3475
10 Adelie  Torgersen           42            20.2               190        4250
# ℹ 210 more rows
# ℹ 2 more variables: sex <fct>, year <int>
…
